<?xml version="1.0" encoding="utf-8"?>
<!-- Generator: Adobe Illustrator 17.0.0, SVG Export Plug-In . SVG Version: 6.00 Build 0)  -->
<!DOCTYPE svg PUBLIC "-//W3C//DTD SVG 1.1//EN" "http://www.w3.org/Graphics/SVG/1.1/DTD/svg11.dtd">
<svg version="1.1" id="Layer_1" xmlns="http://www.w3.org/2000/svg" xmlns:xlink="http://www.w3.org/1999/xlink" x="0px" y="0px"
	 width="280px" height="220px" viewBox="110 140 280 220" enable-background="new 110 140 280 220" xml:space="preserve">
<path opacity="0.1" fill="#90592F" enable-background="new    " d="M140.155,233.876c-1.922,2.997-3.599,6.152-4.998,9.429
	c-6.133,14.363-6.868,30.957-2.031,45.807c3.252,9.984,8.278,19.316,17.545,24.888c7.101,4.269,15.295,6.335,23.439,7.86
	c20.864,3.907,42.428,4.669,62.579,11.342c11.069,3.665,21.49,9.048,32.424,13.1c29.02,10.753,63.971,4.422,85.127-19.125
	c18.884-21.019,23.74-54.553,5.869-77.426c-7.685-9.837-16.926-18.504-23.466-29.137c-4.185-6.805-7.173-14.274-11.08-21.242
	c-6.712-11.971-17.703-20.589-30.018-26.379c-16.61-7.809-36.02-11.357-54.431-9.297c-9.282,1.039-18.467,3.576-26.688,8.069
	c-8.912,4.87-14.104,11.568-20.54,19.048c-8.978,10.434-23.476,16.229-34.75,23.741C151.57,219.593,145.063,226.224,140.155,233.876
	z"/>
<path fill="none" stroke="#90592F" stroke-linecap="round" stroke-miterlimit="10" d="M211.964,335.018
	c14.167,2.599,28.084,6.47,41.583,11.491c10.668,3.968,20.578,9.132,31.887,11.163c19.995,3.591,41.425-0.156,58.337-11.638
	c9.826-6.671,17.794-15.826,23.119-26.436"/>
<path fill="none" stroke="#90592F" stroke-linecap="round" stroke-miterlimit="10" d="M196.774,332.712
	c2.586,0.235,5.168,0.508,7.746,0.82"/>
<path fill="none" stroke="#90592F" stroke-miterlimit="10" d="M191.234,248.277v-94.553c0-6.874,5.572-12.445,12.445-12.445h86.541
	c6.874,0,12.445,5.572,12.445,12.445v52.955"/>
<path fill="#FFFFFF" d="M265.854,325.614H174.75c-7.893,0-14.291-6.398-14.291-14.291v-50.898c0-7.893,6.398-14.291,14.291-14.291
	h91.103c7.893,0,14.291,6.398,14.291,14.291v50.898C280.144,319.216,273.746,325.614,265.854,325.614z"/>
<path fill="none" stroke="#90592F" stroke-linecap="round" stroke-miterlimit="10" d="M259.835,319.596h-91.103
	c-7.893,0-14.291-6.398-14.291-14.291v-50.898c0-7.893,6.398-14.291,14.291-14.291h91.103c7.893,0,14.291,6.398,14.291,14.291
	v50.898C274.126,313.198,267.728,319.596,259.835,319.596z"/>
<rect x="154.441" y="255.685" fill="#90592F" width="119.685" height="15.46"/>
<line fill="none" stroke="#90592F" stroke-linecap="round" stroke-miterlimit="10" x1="165.718" y1="288.657" x2="194.835" y2="288.657"/>
<line fill="none" stroke="#90592F" stroke-linecap="round" stroke-miterlimit="10" x1="165.718" y1="294.873" x2="194.835" y2="294.873"/>
<path fill="none" stroke="#90592F" stroke-linecap="round" stroke-miterlimit="10" d="M256.719,300.362h-7.935
	c-2.226,0-4.031-1.804-4.031-4.031v-7.934c0-2.226,1.804-4.031,4.031-4.031h7.935c2.226,0,4.031,1.804,4.031,4.031v7.934
	C260.75,298.557,258.945,300.362,256.719,300.362z"/>
<line fill="none" stroke="#90592F" stroke-linecap="round" stroke-miterlimit="10" x1="165.718" y1="303.844" x2="174.132" y2="303.844"/>
<line fill="none" stroke="#90592F" stroke-linecap="round" stroke-miterlimit="10" x1="182.819" y1="303.844" x2="191.234" y2="303.844"/>
<rect x="219.14" y="188.709" fill="#427638" width="140.637" height="76.081"/>
<rect x="225.882" y="194.776" fill="none" stroke="#FFFFFF" stroke-linecap="round" stroke-miterlimit="10" width="126.376" height="63.511"/>
<circle fill="#C2912C" cx="287.296" cy="226.75" r="19.504"/>
<g enable-background="new    ">
	<path fill="#FFFFFF" d="M294.46,229.045c0,3.298-2.528,5.658-6.717,6.187l-0.53,2.6h-3.395l0.506-2.576
		c-2.335-0.193-4.357-0.842-5.682-1.685l2.191-4.141c1.878,1.083,3.804,1.565,5.682,1.565c1.468,0,2.239-0.385,2.239-0.987
		c0-1.782-8.017-0.747-8.017-5.97c0-3.467,2.624-5.85,7.102-6.26l0.505-2.576h3.395l-0.53,2.624c1.709,0.192,3.202,0.65,4.357,1.348
		l-2.046,4.117c-1.348-0.842-2.985-1.252-4.622-1.252c-1.661,0-2.48,0.554-2.48,1.132
		C286.419,225.025,294.46,223.845,294.46,229.045z"/>
</g>
<g>
	<line fill="none" stroke="#90592F" stroke-miterlimit="10" x1="178.786" y1="216.591" x2="178.786" y2="225.742"/>
	<line fill="none" stroke="#90592F" stroke-miterlimit="10" x1="183.362" y1="221.167" x2="174.211" y2="221.167"/>
</g>
<g>
	<line fill="none" stroke="#90592F" stroke-miterlimit="10" x1="302.666" y1="275.281" x2="302.666" y2="284.432"/>
	<line fill="none" stroke="#90592F" stroke-miterlimit="10" x1="307.241" y1="279.857" x2="298.09" y2="279.857"/>
</g>
<g>
	<line fill="none" stroke="#90592F" stroke-miterlimit="10" x1="290.595" y1="292.364" x2="290.595" y2="301.516"/>
	<line fill="none" stroke="#90592F" stroke-miterlimit="10" x1="295.171" y1="296.94" x2="286.02" y2="296.94"/>
</g>
<g>
	<line fill="none" stroke="#90592F" stroke-miterlimit="10" x1="344.26" y1="176.459" x2="344.26" y2="185.611"/>
	<line fill="none" stroke="#90592F" stroke-miterlimit="10" x1="348.835" y1="181.035" x2="339.684" y2="181.035"/>
</g>
<line fill="none" stroke="#90592F" stroke-miterlimit="10" x1="191.234" y1="156.691" x2="302.666" y2="156.691"/>
<circle fill="#90592F" cx="202.052" cy="148.897" r="1.934"/>
<circle fill="#90592F" cx="211.571" cy="148.897" r="1.934"/>
<circle fill="#90592F" cx="221.091" cy="148.897" r="1.934"/>
</svg>
